wave.vcd
$version Generated by VerilatedVcd $end
$timescale 1ps $end
 $scope module TOP $end
  $var wire 1 # clk $end
  $var wire 1 $ reset $end
  $var wire 1 % cov_valid $end
  $var wire 1 & cov_ready $end
  $var wire 1 ' cov_read $end
  $var wire 1 ( cov_write $end
  $scope module tb_top $end
   $var wire 1 ) clk $end
   $var wire 1 * reset $end
   $var wire 1 + cov_valid $end
   $var wire 1 , cov_ready $end
   $var wire 1 - cov_read $end
   $var wire 1 . cov_write $end
   $scope module bus_master $end
    $var wire 16 E addr [15:0] $end
    $var wire 32 F write_data [31:0] $end
    $var wire 32 G read_data [31:0] $end
    $var wire 1 H read $end
    $var wire 1 I write $end
    $var wire 1 J valid $end
    $var wire 1 K ready $end
   $upscope $end
   $scope module bus_slave $end
    $var wire 16 L addr [15:0] $end
    $var wire 32 M write_data [31:0] $end
    $var wire 32 N read_data [31:0] $end
    $var wire 1 O read $end
    $var wire 1 P write $end
    $var wire 1 Q valid $end
    $var wire 1 R ready $end
   $upscope $end
   $scope module u_arbiter $end
    $scope module m $end
     $var wire 16 E addr [15:0] $end
     $var wire 32 F write_data [31:0] $end
     $var wire 32 G read_data [31:0] $end
     $var wire 1 H read $end
     $var wire 1 I write $end
     $var wire 1 J valid $end
     $var wire 1 K ready $end
    $upscope $end
    $scope module s $end
     $var wire 16 L addr [15:0] $end
     $var wire 32 M write_data [31:0] $end
     $var wire 32 N read_data [31:0] $end
     $var wire 1 O read $end
     $var wire 1 P write $end
     $var wire 1 Q valid $end
     $var wire 1 R ready $end
    $upscope $end
   $upscope $end
   $scope module u_master $end
    $var wire 1 / clk $end
    $var wire 1 0 reset $end
    $scope module busa $end
     $var wire 16 E addr [15:0] $end
     $var wire 32 F write_data [31:0] $end
     $var wire 32 G read_data [31:0] $end
     $var wire 1 H read $end
     $var wire 1 I write $end
     $var wire 1 J valid $end
     $var wire 1 K ready $end
    $upscope $end
    $var wire 2 S ST_IDLE [1:0] $end
    $var wire 2 T ST_ADDR_PHASE [1:0] $end
    $var wire 2 U ST_DATA_PHASE [1:0] $end
    $var wire 2 1 state [1:0] $end
    $var wire 2 2 next_state [1:0] $end
    $var wire 1 3 write_r $end
    $var wire 1 4 valid_r $end
    $var wire 1 5 read_r $end
    $var wire 16 6 addr_r [15:0] $end
    $var wire 32 7 write_data_r [31:0] $end
    $var wire 1 8 next_valid_r $end
    $var wire 1 9 next_read_r $end
    $var wire 1 : next_write_r $end
    $var wire 16 ; next_addr_r [15:0] $end
    $var wire 32 < next_write_data_r [31:0] $end
   $upscope $end
   $scope module u_slave $end
    $var wire 1 = clk $end
    $var wire 1 > reset $end
    $scope module busc $end
     $var wire 16 L addr [15:0] $end
     $var wire 32 M write_data [31:0] $end
     $var wire 32 N read_data [31:0] $end
     $var wire 1 O read $end
     $var wire 1 P write $end
     $var wire 1 Q valid $end
     $var wire 1 R ready $end
    $upscope $end
    $var wire 2 S ST_IDLE [1:0] $end
    $var wire 2 T ST_ADDR_PHASE [1:0] $end
    $var wire 2 U ST_DATA_PHASE [1:0] $end
    $var wire 2 ? state [1:0] $end
    $var wire 2 @ next_state [1:0] $end
    $var wire 1 A ready_r $end
    $var wire 1 B ready_next $end
    $var wire 32 C read_data_r [31:0] $end
    $var wire 32 D read_data_next [31:0] $end
   $upscope $end
  $upscope $end
 $upscope $end
$enddefinitions $end


#0
0#
1$
0%
0&
0'
0(
0)
1*
0+
0,
0-
0.
0/
10
b00 1
b01 2
03
04
05
b0000000000000000 6
b00000000000000000000000000000000 7
08
09
0:
b0000000000000000 ;
b00000000000000000000000000000000 <
0=
1>
b00 ?
b00 @
0A
0B
b00000000000000000000000000000000 C
b00000000000000000000000000000000 D
b0000000000000000 E
b00000000000000000000000000000000 F
b00000000000000000000000000000000 G
0H
0I
0J
0K
b0000000000000000 L
b00000000000000000000000000000000 M
b00000000000000000000000000000000 N
0O
0P
0Q
0R
b00 S
b01 T
b10 U
#10
1#
1%
1)
1+
1/
b01 1
18
19
b0000000000000001 ;
b11011110101011001011111011111111 <
1=
b01 @
1J
1Q
#20
0#
0)
0/
0=
#30
1#
1'
1)
1-
1/
14
15
b0000000000000001 6
b11011110101011001011111011111111 7
1=
b01 ?
b10 @
1B
b11011110101011001011111011111111 D
b0000000000000001 E
b11011110101011001011111011111111 F
1H
b0000000000000001 L
b11011110101011001011111011111111 M
1O
#40
0#
0)
0/
0=
#50
1#
1&
1)
1,
1/
b10 2
1=
b10 ?
b00 @
1A
b11011110101011001011111011111111 C
b11011110101011001011111011111111 G
1K
b11011110101011001011111011111111 N
1R
#60
0#
0)
0/
0=
#70
1#
1)
1/
b10 1
b00 2
09
1=
b00 ?
b01 @
0B
#80
0#
0)
0/
0=
#90
1#
0%
0&
0'
1)
0+
0,
0-
1/
b00 1
b01 2
05
08
1=
b01 ?
0A
1B
0H
0J
0K
0O
0Q
0R
#100
0#
0)
0/
0=
#110
1#
1%
1&
1)
1+
1,
1/
b01 1
b10 2
04
18
19
1=
b10 @
1A
1J
1K
1Q
1R
#120
0#
0)
0/
0=
#130
1#
1'
1)
1-
1/
b10 1
b00 2
14
15
09
1=
b10 ?
b00 @
1H
1O
#140
0#
0)
0/
0=
#150
1#
0%
0'
1)
0+
0-
1/
b00 1
b01 2
05
08
1=
b00 ?
0B
0H
0J
0O
0Q
#160
0#
0)
0/
0=
#170
1#
1%
0&
1)
1+
0,
1/
b01 1
04
18
19
1=
b01 @
0A
1J
0K
1Q
0R
#180
0#
0)
0/
0=
#190
1#
1'
1)
1-
1/
14
15
1=
b01 ?
b10 @
1B
1H
1O
#200
0#
0)
0/
0=
#210
1#
1&
1)
1,
1/
b10 2
1=
b10 ?
b00 @
1A
1K
1R
#220
0#
0)
0/
0=
#230
1#
1)
1/
b10 1
b00 2
09
1=
b00 ?
b01 @
0B
#240
0#
0)
0/
0=
#250
1#
0%
0&
0'
1)
0+
0,
0-
1/
b00 1
b01 2
05
08
1=
b01 ?
0A
1B
0H
0J
0K
0O
0Q
0R
#260
0#
0)
0/
0=
#270
1#
1%
1&
1)
1+
1,
1/
b01 1
b10 2
04
18
19
1=
b10 @
1A
1J
1K
1Q
1R
#280
0#
0)
0/
0=
#290
1#
1'
1)
1-
1/
b10 1
b00 2
14
15
09
1=
b10 ?
b00 @
1H
1O
#300
0#
0)
0/
0=
#310
1#
0%
0'
1)
0+
0-
1/
b00 1
b01 2
05
08
1=
b00 ?
0B
0H
0J
0O
0Q
#320
0#
0)
0/
0=
#330
1#
1%
0&
1)
1+
0,
1/
b01 1
04
18
19
1=
b01 @
0A
1J
0K
1Q
0R
#340
0#
0)
0/
0=
#350
1#
1'
1)
1-
1/
14
15
1=
b01 ?
b10 @
1B
1H
1O
#360
0#
0)
0/
0=
#370
1#
1&
1)
1,
1/
b10 2
1=
b10 ?
b00 @
1A
1K
1R
#380
0#
0)
0/
0=
#390
1#
1)
1/
b10 1
b00 2
09
1=
b00 ?
b01 @
0B
#400
0#
0)
0/
0=
#410
1#
0%
0&
0'
1)
0+
0,
0-
1/
b00 1
b01 2
05
08
1=
b01 ?
0A
1B
0H
0J
0K
0O
0Q
0R
#420
0#
0)
0/
0=
#430
1#
1%
1&
1)
1+
1,
1/
b01 1
b10 2
04
18
19
1=
b10 @
1A
1J
1K
1Q
1R
#440
0#
0)
0/
0=
#450
1#
1'
1)
1-
1/
b10 1
b00 2
14
15
09
1=
b10 ?
b00 @
1H
1O
#460
0#
0)
0/
0=
#470
1#
0%
0'
1)
0+
0-
1/
b00 1
b01 2
05
08
1=
b00 ?
0B
0H
0J
0O
0Q
#480
0#
0)
0/
0=
#490
1#
1%
0&
1)
1+
0,
1/
b01 1
04
18
19
1=
b01 @
0A
1J
0K
1Q
0R
#500
0#
0)
0/
0=
#510
1#
1'
1)
1-
1/
14
15
1=
b01 ?
b10 @
1B
1H
1O
#520
0#
0)
0/
0=
#530
1#
1&
1)
1,
1/
b10 2
1=
b10 ?
b00 @
1A
1K
1R
#540
0#
0)
0/
0=
#550
1#
1)
1/
b10 1
b00 2
09
1=
b00 ?
b01 @
0B
#560
0#
0)
0/
0=
#570
1#
0%
0&
0'
1)
0+
0,
0-
1/
b00 1
b01 2
05
08
1=
b01 ?
0A
1B
0H
0J
0K
0O
0Q
0R
#580
0#
0)
0/
0=
#590
1#
1%
1&
1)
1+
1,
1/
b01 1
b10 2
04
18
19
1=
b10 @
1A
1J
1K
1Q
1R
#600
0#
0)
0/
0=
#610
1#
1'
1)
1-
1/
b10 1
b00 2
14
15
09
1=
b10 ?
b00 @
1H
1O
#620
0#
0)
0/
0=
#630
1#
0%
0'
1)
0+
0-
1/
b00 1
b01 2
05
08
1=
b00 ?
0B
0H
0J
0O
0Q
#640
0#
0)
0/
0=
#650
1#
1%
0&
1)
1+
0,
1/
b01 1
04
18
19
1=
b01 @
0A
1J
0K
1Q
0R
#660
0#
0)
0/
0=
#670
1#
1'
1)
1-
1/
14
15
1=
b01 ?
b10 @
1B
1H
1O
#680
0#
0)
0/
0=
#690
1#
1&
1)
1,
1/
b10 2
1=
b10 ?
b00 @
1A
1K
1R
#700
0#
0)
0/
0=
#710
1#
1)
1/
b10 1
b00 2
09
1=
b00 ?
b01 @
0B
#720
0#
0)
0/
0=
#730
1#
0%
0&
0'
1)
0+
0,
0-
1/
b00 1
b01 2
05
08
1=
b01 ?
0A
1B
0H
0J
0K
0O
0Q
0R
#740
0#
0)
0/
0=
#750
1#
1%
1&
1)
1+
1,
1/
b01 1
b10 2
04
18
19
1=
b10 @
1A
1J
1K
1Q
1R
#760
0#
0)
0/
0=
#770
1#
1'
1)
1-
1/
b10 1
b00 2
14
15
09
1=
b10 ?
b00 @
1H
1O
#780
0#
0)
0/
0=
#790
1#
0%
0'
1)
0+
0-
1/
b00 1
b01 2
05
08
1=
b00 ?
0B
0H
0J
0O
0Q
#800
0#
0)
0/
0=
#810
1#
1%
0&
1)
1+
0,
1/
b01 1
04
18
19
1=
b01 @
0A
1J
0K
1Q
0R
#820
0#
0)
0/
0=
#830
1#
1'
1)
1-
1/
14
15
1=
b01 ?
b10 @
1B
1H
1O
#840
0#
0)
0/
0=
#850
1#
1&
1)
1,
1/
b10 2
1=
b10 ?
b00 @
1A
1K
1R
#860
0#
0)
0/
0=
#870
1#
1)
1/
b10 1
b00 2
09
1=
b00 ?
b01 @
0B
#880
0#
0)
0/
0=
#890
1#
0%
0&
0'
1)
0+
0,
0-
1/
b00 1
b01 2
05
08
1=
b01 ?
0A
1B
0H
0J
0K
0O
0Q
0R
#900
0#
0)
0/
0=
#910
1#
1%
1&
1)
1+
1,
1/
b01 1
b10 2
04
18
19
1=
b10 @
1A
1J
1K
1Q
1R
#920
0#
0)
0/
0=
#930
1#
1'
1)
1-
1/
b10 1
b00 2
14
15
09
1=
b10 ?
b00 @
1H
1O
#940
0#
0)
0/
0=
#950
1#
0%
0'
1)
0+
0-
1/
b00 1
b01 2
05
08
1=
b00 ?
0B
0H
0J
0O
0Q
#960
0#
0)
0/
0=
#970
1#
1%
0&
1)
1+
0,
1/
b01 1
04
18
19
1=
b01 @
0A
1J
0K
1Q
0R
#980
0#
0)
0/
0=
#990
1#
1'
1)
1-
1/
14
15
1=
b01 ?
b10 @
1B
1H
1O
#1000
0#
0)
0/
0=
#1010
1#
1&
1)
1,
1/
b10 2
1=
b10 ?
b00 @
1A
1K
1R
#1020
0#
0)
0/
0=
#1030
1#
1)
1/
b10 1
b00 2
09
1=
b00 ?
b01 @
0B
#1040
0#
0)
0/
0=
#1050
1#
0%
0&
0'
1)
0+
0,
0-
1/
b00 1
b01 2
05
08
1=
b01 ?
0A
1B
0H
0J
0K
0O
0Q
0R
#1060
0#
0)
0/
0=
#1070
1#
1%
1&
1)
1+
1,
1/
b01 1
b10 2
04
18
19
1=
b10 @
1A
1J
1K
1Q
1R
#1080
0#
0)
0/
0=
#1090
1#
1'
1)
1-
1/
b10 1
b00 2
14
15
09
1=
b10 ?
b00 @
1H
1O
#1100
0#
0)
0/
0=
#1110
1#
0%
0'
1)
0+
0-
1/
b00 1
b01 2
05
08
1=
b00 ?
0B
0H
0J
0O
0Q
#1120
0#
0)
0/
0=
#1130
1#
1%
0&
1)
1+
0,
1/
b01 1
04
18
19
1=
b01 @
0A
1J
0K
1Q
0R
#1140
0#
0)
0/
0=
#1150
1#
1'
1)
1-
1/
14
15
1=
b01 ?
b10 @
1B
1H
1O
#1160
0#
0)
0/
0=
#1170
1#
1&
1)
1,
1/
b10 2
1=
b10 ?
b00 @
1A
1K
1R
#1180
0#
0)
0/
0=
#1190
1#
1)
1/
b10 1
b00 2
09
1=
b00 ?
b01 @
0B
#1200
0#
0)
0/
0=
#1210
1#
0%
0&
0'
1)
0+
0,
0-
1/
b00 1
b01 2
05
08
1=
b01 ?
0A
1B
0H
0J
0K
0O
0Q
0R
#1220
0#
0)
0/
0=
#1230
1#
1%
1&
1)
1+
1,
1/
b01 1
b10 2
04
18
19
1=
b10 @
1A
1J
1K
1Q
1R
#1240
0#
0)
0/
0=
#1250
1#
1'
1)
1-
1/
b10 1
b00 2
14
15
09
1=
b10 ?
b00 @
1H
1O
#1260
0#
0)
0/
0=
#1270
1#
0%
0'
1)
0+
0-
1/
b00 1
b01 2
05
08
1=
b00 ?
0B
0H
0J
0O
0Q
#1280
0#
0)
0/
0=
#1290
1#
1%
0&
1)
1+
0,
1/
b01 1
04
18
19
1=
b01 @
0A
1J
0K
1Q
0R
#1300
0#
0)
0/
0=
#1310
1#
1'
1)
1-
1/
14
15
1=
b01 ?
b10 @
1B
1H
1O
#1320
0#
0)
0/
0=
#1330
1#
1&
1)
1,
1/
b10 2
1=
b10 ?
b00 @
1A
1K
1R
#1340
0#
0)
0/
0=
#1350
1#
1)
1/
b10 1
b00 2
09
1=
b00 ?
b01 @
0B
#1360
0#
0)
0/
0=
#1370
1#
0%
0&
0'
1)
0+
0,
0-
1/
b00 1
b01 2
05
08
1=
b01 ?
0A
1B
0H
0J
0K
0O
0Q
0R
#1380
0#
0)
0/
0=
#1390
1#
1%
1&
1)
1+
1,
1/
b01 1
b10 2
04
18
19
1=
b10 @
1A
1J
1K
1Q
1R
#1400
0#
0)
0/
0=
#1410
1#
1'
1)
1-
1/
b10 1
b00 2
14
15
09
1=
b10 ?
b00 @
1H
1O
#1420
0#
0)
0/
0=
#1430
1#
0%
0'
1)
0+
0-
1/
b00 1
b01 2
05
08
1=
b00 ?
0B
0H
0J
0O
0Q
#1440
0#
0)
0/
0=
#1450
1#
1%
0&
1)
1+
0,
1/
b01 1
04
18
19
1=
b01 @
0A
1J
0K
1Q
0R
#1460
0#
0)
0/
0=
#1470
1#
1'
1)
1-
1/
14
15
1=
b01 ?
b10 @
1B
1H
1O
#1480
0#
0)
0/
0=
#1490
1#
1&
1)
1,
1/
b10 2
1=
b10 ?
b00 @
1A
1K
1R
#1500
0#
0)
0/
0=
#1510
1#
1)
1/
b10 1
b00 2
09
1=
b00 ?
b01 @
0B
#1520
0#
0)
0/
0=
#1530
1#
0%
0&
0'
1)
0+
0,
0-
1/
b00 1
b01 2
05
08
1=
b01 ?
0A
1B
0H
0J
0K
0O
0Q
0R
#1540
0#
0)
0/
0=
#1550
1#
1%
1&
1)
1+
1,
1/
b01 1
b10 2
04
18
19
1=
b10 @
1A
1J
1K
1Q
1R
#1560
0#
0)
0/
0=
#1570
1#
1'
1)
1-
1/
b10 1
b00 2
14
15
09
1=
b10 ?
b00 @
1H
1O
#1580
0#
0)
0/
0=
#1590
1#
0%
0'
1)
0+
0-
1/
b00 1
b01 2
05
08
1=
b00 ?
0B
0H
0J
0O
0Q
#1600
0#
0)
0/
0=
#1610
1#
1%
0&
1)
1+
0,
1/
b01 1
04
18
19
1=
b01 @
0A
1J
0K
1Q
0R
#1620
0#
0)
0/
0=
#1630
1#
1'
1)
1-
1/
14
15
1=
b01 ?
b10 @
1B
1H
1O
#1640
0#
0)
0/
0=
#1650
1#
1&
1)
1,
1/
b10 2
1=
b10 ?
b00 @
1A
1K
1R
#1660
0#
0)
0/
0=
#1670
1#
1)
1/
b10 1
b00 2
09
1=
b00 ?
b01 @
0B
#1680
0#
0)
0/
0=
#1690
1#
0%
0&
0'
1)
0+
0,
0-
1/
b00 1
b01 2
05
08
1=
b01 ?
0A
1B
0H
0J
0K
0O
0Q
0R
#1700
0#
0)
0/
0=
#1710
1#
1%
1&
1)
1+
1,
1/
b01 1
b10 2
04
18
19
1=
b10 @
1A
1J
1K
1Q
1R
#1720
0#
0)
0/
0=
#1730
1#
1'
1)
1-
1/
b10 1
b00 2
14
15
09
1=
b10 ?
b00 @
1H
1O
#1740
0#
0)
0/
0=
#1750
1#
0%
0'
1)
0+
0-
1/
b00 1
b01 2
05
08
1=
b00 ?
0B
0H
0J
0O
0Q
#1760
0#
0)
0/
0=
#1770
1#
1%
0&
1)
1+
0,
1/
b01 1
04
18
19
1=
b01 @
0A
1J
0K
1Q
0R
#1780
0#
0)
0/
0=
#1790
1#
1'
1)
1-
1/
14
15
1=
b01 ?
b10 @
1B
1H
1O
#1800
0#
0)
0/
0=
#1810
1#
1&
1)
1,
1/
b10 2
1=
b10 ?
b00 @
1A
1K
1R
#1820
0#
0)
0/
0=
#1830
1#
1)
1/
b10 1
b00 2
09
1=
b00 ?
b01 @
0B
#1840
0#
0)
0/
0=
#1850
1#
0%
0&
0'
1)
0+
0,
0-
1/
b00 1
b01 2
05
08
1=
b01 ?
0A
1B
0H
0J
0K
0O
0Q
0R
#1860
0#
0)
0/
0=
#1870
1#
1%
1&
1)
1+
1,
1/
b01 1
b10 2
04
18
19
1=
b10 @
1A
1J
1K
1Q
1R
#1880
0#
0)
0/
0=
#1890
1#
1'
1)
1-
1/
b10 1
b00 2
14
15
09
1=
b10 ?
b00 @
1H
1O
#1900
0#
0)
0/
0=
#1910
1#
0%
0'
1)
0+
0-
1/
b00 1
b01 2
05
08
1=
b00 ?
0B
0H
0J
0O
0Q
#1920
0#
0)
0/
0=
#1930
1#
1%
0&
1)
1+
0,
1/
b01 1
04
18
19
1=
b01 @
0A
1J
0K
1Q
0R
#1940
0#
0)
0/
0=
#1950
1#
1'
1)
1-
1/
14
15
1=
b01 ?
b10 @
1B
1H
1O
#1960
0#
0)
0/
0=
#1970
1#
1&
1)
1,
1/
b10 2
1=
b10 ?
b00 @
1A
1K
1R
#1980
0#
0)
0/
0=
#1990
1#
1)
1/
b10 1
b00 2
09
1=
b00 ?
b01 @
0B
#2000
0#
0)
0/
0=
#2010
1#
0%
0&
0'
1)
0+
0,
0-
1/
b00 1
b01 2
05
08
1=
b01 ?
0A
1B
0H
0J
0K
0O
0Q
0R
#2020
0#
0)
0/
0=
#2030
1#
1%
1&
1)
1+
1,
1/
b01 1
b10 2
04
18
19
1=
b10 @
1A
1J
1K
1Q
1R
#2040
0#
0)
0/
0=
#2050
1#
1'
1)
1-
1/
b10 1
b00 2
14
15
09
1=
b10 ?
b00 @
1H
1O
#2060
0#
0)
0/
0=
#2070
1#
0%
0'
1)
0+
0-
1/
b00 1
b01 2
05
08
1=
b00 ?
0B
0H
0J
0O
0Q
#2080
0#
0)
0/
0=
#2090
1#
1%
0&
1)
1+
0,
1/
b01 1
04
18
19
1=
b01 @
0A
1J
0K
1Q
0R
#2100
0#
0)
0/
0=
#2110
1#
1'
1)
1-
1/
14
15
1=
b01 ?
b10 @
1B
1H
1O
#2120
0#
0)
0/
0=
#2130
1#
1&
1)
1,
1/
b10 2
1=
b10 ?
b00 @
1A
1K
1R
#2140
0#
0)
0/
0=
#2150
1#
1)
1/
b10 1
b00 2
09
1=
b00 ?
b01 @
0B
#2160
0#
0)
0/
0=
#2170
1#
0%
0&
0'
1)
0+
0,
0-
1/
b00 1
b01 2
05
08
1=
b01 ?
0A
1B
0H
0J
0K
0O
0Q
0R
#2180
0#
0)
0/
0=
#2190
1#
1%
1&
1)
1+
1,
1/
b01 1
b10 2
04
18
19
1=
b10 @
1A
1J
1K
1Q
1R
#2200
0#
0)
0/
0=
#2210
1#
1'
1)
1-
1/
b10 1
b00 2
14
15
09
1=
b10 ?
b00 @
1H
1O
#2220
0#
0)
0/
0=
#2230
1#
0%
0'
1)
0+
0-
1/
b00 1
b01 2
05
08
1=
b00 ?
0B
0H
0J
0O
0Q
#2240
0#
0)
0/
0=
#2250
1#
1%
0&
1)
1+
0,
1/
b01 1
04
18
19
1=
b01 @
0A
1J
0K
1Q
0R
#2260
0#
0)
0/
0=
#2270
1#
1'
1)
1-
1/
14
15
1=
b01 ?
b10 @
1B
1H
1O
#2280
0#
0)
0/
0=
#2290
1#
1&
1)
1,
1/
b10 2
1=
b10 ?
b00 @
1A
1K
1R
#2300
0#
0)
0/
0=
#2310
1#
1)
1/
b10 1
b00 2
09
1=
b00 ?
b01 @
0B
#2320
0#
0)
0/
0=
#2330
1#
0%
0&
0'
1)
0+
0,
0-
1/
b00 1
b01 2
05
08
1=
b01 ?
0A
1B
0H
0J
0K
0O
0Q
0R
#2340
0#
0)
0/
0=
#2350
1#
1%
1&
1)
1+
1,
1/
b01 1
b10 2
04
18
19
1=
b10 @
1A
1J
1K
1Q
1R
#2360
0#
0)
0/
0=
#2370
1#
1'
1)
1-
1/
b10 1
b00 2
14
15
09
1=
b10 ?
b00 @
1H
1O
#2380
0#
0)
0/
0=
#2390
1#
0%
0'
1)
0+
0-
1/
b00 1
b01 2
05
08
1=
b00 ?
0B
0H
0J
0O
0Q
#2400
0#
0)
0/
0=
#2410
1#
1%
0&
1)
1+
0,
1/
b01 1
04
18
19
1=
b01 @
0A
1J
0K
1Q
0R
#2420
0#
0)
0/
0=
#2430
1#
1'
1)
1-
1/
14
15
1=
b01 ?
b10 @
1B
1H
1O
#2440
0#
0)
0/
0=
#2450
1#
1&
1)
1,
1/
b10 2
1=
b10 ?
b00 @
1A
1K
1R
#2460
0#
0)
0/
0=
#2470
1#
1)
1/
b10 1
b00 2
09
1=
b00 ?
b01 @
0B
#2480
0#
0)
0/
0=
#2490
1#
0%
0&
0'
1)
0+
0,
0-
1/
b00 1
b01 2
05
08
1=
b01 ?
0A
1B
0H
0J
0K
0O
0Q
0R
#2500
0#
0)
0/
0=
#2510
1#
1%
1&
1)
1+
1,
1/
b01 1
b10 2
04
18
19
1=
b10 @
1A
1J
1K
1Q
1R
#2520
0#
0)
0/
0=
#2530
1#
1'
1)
1-
1/
b10 1
b00 2
14
15
09
1=
b10 ?
b00 @
1H
1O
#2540
0#
0)
0/
0=
#2550
1#
0%
0'
1)
0+
0-
1/
b00 1
b01 2
05
08
1=
b00 ?
0B
0H
0J
0O
0Q
#2560
0#
0)
0/
0=
#2570
1#
1%
0&
1)
1+
0,
1/
b01 1
04
18
19
1=
b01 @
0A
1J
0K
1Q
0R
#2580
0#
0)
0/
0=
#2590
1#
1'
1)
1-
1/
14
15
1=
b01 ?
b10 @
1B
1H
1O
#2600
0#
0)
0/
0=
#2610
1#
1&
1)
1,
1/
b10 2
1=
b10 ?
b00 @
1A
1K
1R
#2620
0#
0)
0/
0=
#2630
1#
1)
1/
b10 1
b00 2
09
1=
b00 ?
b01 @
0B
#2640
0#
0)
0/
0=
#2650
1#
0%
0&
0'
1)
0+
0,
0-
1/
b00 1
b01 2
05
08
1=
b01 ?
0A
1B
0H
0J
0K
0O
0Q
0R
#2660
0#
0)
0/
0=
#2670
1#
1%
1&
1)
1+
1,
1/
b01 1
b10 2
04
18
19
1=
b10 @
1A
1J
1K
1Q
1R
#2680
0#
0)
0/
0=
#2690
1#
1'
1)
1-
1/
b10 1
b00 2
14
15
09
1=
b10 ?
b00 @
1H
1O
#2700
0#
0)
0/
0=
#2710
1#
0%
0'
1)
0+
0-
1/
b00 1
b01 2
05
08
1=
b00 ?
0B
0H
0J
0O
0Q
#2720
0#
0)
0/
0=
#2730
1#
1%
0&
1)
1+
0,
1/
b01 1
04
18
19
1=
b01 @
0A
1J
0K
1Q
0R
#2740
0#
0)
0/
0=
#2750
1#
1'
1)
1-
1/
14
15
1=
b01 ?
b10 @
1B
1H
1O
#2760
0#
0)
0/
0=
#2770
1#
1&
1)
1,
1/
b10 2
1=
b10 ?
b00 @
1A
1K
1R
#2780
0#
0)
0/
0=
#2790
1#
1)
1/
b10 1
b00 2
09
1=
b00 ?
b01 @
0B
#2800
0#
0)
0/
0=
#2810
1#
0%
0&
0'
1)
0+
0,
0-
1/
b00 1
b01 2
05
08
1=
b01 ?
0A
1B
0H
0J
0K
0O
0Q
0R
#2820
0#
0)
0/
0=
#2830
1#
1%
1&
1)
1+
1,
1/
b01 1
b10 2
04
18
19
1=
b10 @
1A
1J
1K
1Q
1R
#2840
0#
0)
0/
0=
#2850
1#
1'
1)
1-
1/
b10 1
b00 2
14
15
09
1=
b10 ?
b00 @
1H
1O
#2860
0#
0)
0/
0=
#2870
1#
0%
0'
1)
0+
0-
1/
b00 1
b01 2
05
08
1=
b00 ?
0B
0H
0J
0O
0Q
#2880
0#
0)
0/
0=
#2890
1#
1%
0&
1)
1+
0,
1/
b01 1
04
18
19
1=
b01 @
0A
1J
0K
1Q
0R
#2900
0#
0)
0/
0=
#2910
1#
1'
1)
1-
1/
14
15
1=
b01 ?
b10 @
1B
1H
1O
#2920
0#
0)
0/
0=
#2930
1#
1&
1)
1,
1/
b10 2
1=
b10 ?
b00 @
1A
1K
1R
#2940
0#
0)
0/
0=
#2950
1#
1)
1/
b10 1
b00 2
09
1=
b00 ?
b01 @
0B
#2960
0#
0)
0/
0=
#2970
1#
0%
0&
0'
1)
0+
0,
0-
1/
b00 1
b01 2
05
08
1=
b01 ?
0A
1B
0H
0J
0K
0O
0Q
0R
#2980
0#
0)
0/
0=
#2990
1#
1%
1&
1)
1+
1,
1/
b01 1
b10 2
04
18
19
1=
b10 @
1A
1J
1K
1Q
1R
#3000
0#
0)
0/
0=
#3010
1#
1'
1)
1-
1/
b10 1
b00 2
14
15
09
1=
b10 ?
b00 @
1H
1O
#3020
0#
0)
0/
0=
#3030
1#
0%
0'
1)
0+
0-
1/
b00 1
b01 2
05
08
1=
b00 ?
0B
0H
0J
0O
0Q
#3040
0#
0)
0/
0=
#3050
1#
1%
0&
1)
1+
0,
1/
b01 1
04
18
19
1=
b01 @
0A
1J
0K
1Q
0R
#3060
0#
0)
0/
0=
#3070
1#
1'
1)
1-
1/
14
15
1=
b01 ?
b10 @
1B
1H
1O
#3080
0#
0)
0/
0=
#3090
1#
1&
1)
1,
1/
b10 2
1=
b10 ?
b00 @
1A
1K
1R
#3100
0#
0)
0/
0=
#3110
1#
1)
1/
b10 1
b00 2
09
1=
b00 ?
b01 @
0B
#3120
0#
0)
0/
0=
#3130
1#
0%
0&
0'
1)
0+
0,
0-
1/
b00 1
b01 2
05
08
1=
b01 ?
0A
1B
0H
0J
0K
0O
0Q
0R
#3140
0#
0)
0/
0=
#3150
1#
1%
1&
1)
1+
1,
1/
b01 1
b10 2
04
18
19
1=
b10 @
1A
1J
1K
1Q
1R
#3160
0#
0)
0/
0=
#3170
1#
1'
1)
1-
1/
b10 1
b00 2
14
15
09
1=
b10 ?
b00 @
1H
1O
#3180
0#
0)
0/
0=
#3190
1#
0%
0'
1)
0+
0-
1/
b00 1
b01 2
05
08
1=
b00 ?
0B
0H
0J
0O
0Q
#3200
0#
0)
0/
0=
#3210
1#
1%
0&
1)
1+
0,
1/
b01 1
04
18
19
1=
b01 @
0A
1J
0K
1Q
0R
#3220
0#
0)
0/
0=
#3230
1#
1'
1)
1-
1/
14
15
1=
b01 ?
b10 @
1B
1H
1O
#3240
0#
0)
0/
0=
#3250
1#
1&
1)
1,
1/
b10 2
1=
b10 ?
b00 @
1A
1K
1R
#3260
0#
0)
0/
0=
#3270
1#
1)
1/
b10 1
b00 2
09
1=
b00 ?
b01 @
0B
#3280
0#
0)
0/
0=
#3290
1#
0%
0&
0'
1)
0+
0,
0-
1/
b00 1
b01 2
05
08
1=
b01 ?
0A
1B
0H
0J
0K
0O
0Q
0R
#3300
0#
0)
0/
0=
#3310
1#
1%
1&
1)
1+
1,
1/
b01 1
b10 2
04
18
19
1=
b10 @
1A
1J
1K
1Q
1R
#3320
0#
0)
0/
0=
#3330
1#
1'
1)
1-
1/
b10 1
b00 2
14
15
09
1=
b10 ?
b00 @
1H
1O
#3340
0#
0)
0/
0=
#3350
1#
0%
0'
1)
0+
0-
1/
b00 1
b01 2
05
08
1=
b00 ?
0B
0H
0J
0O
0Q
#3360
0#
0)
0/
0=
#3370
1#
1%
0&
1)
1+
0,
1/
b01 1
04
18
19
1=
b01 @
0A
1J
0K
1Q
0R
#3380
0#
0)
0/
0=
#3390
1#
1'
1)
1-
1/
14
15
1=
b01 ?
b10 @
1B
1H
1O
#3400
0#
0)
0/
0=
#3410
1#
1&
1)
1,
1/
b10 2
1=
b10 ?
b00 @
1A
1K
1R
#3420
0#
0)
0/
0=
#3430
1#
1)
1/
b10 1
b00 2
09
1=
b00 ?
b01 @
0B
#3440
0#
0)
0/
0=
#3450
1#
0%
0&
0'
1)
0+
0,
0-
1/
b00 1
b01 2
05
08
1=
b01 ?
0A
1B
0H
0J
0K
0O
0Q
0R
#3460
0#
0)
0/
0=
#3470
1#
1%
1&
1)
1+
1,
1/
b01 1
b10 2
04
18
19
1=
b10 @
1A
1J
1K
1Q
1R
#3480
0#
0)
0/
0=
#3490
1#
1'
1)
1-
1/
b10 1
b00 2
14
15
09
1=
b10 ?
b00 @
1H
1O
#3500
0#
0)
0/
0=
#3510
1#
0%
0'
1)
0+
0-
1/
b00 1
b01 2
05
08
1=
b00 ?
0B
0H
0J
0O
0Q
#3520
0#
0)
0/
0=
#3530
1#
1%
0&
1)
1+
0,
1/
b01 1
04
18
19
1=
b01 @
0A
1J
0K
1Q
0R
