wave.vcd
$version Generated by VerilatedVcd $end
$timescale 1ps $end
 $scope module TOP $end
  $var wire 1 0 clk $end
  $var wire 1 1 reset $end
  $scope module tb_top $end
   $var wire 1 0 clk $end
   $var wire 1 1 reset $end
   $scope module bus_master $end
    $var wire 16 ( addr [15:0] $end
    $var wire 32 ) write_data [31:0] $end
    $var wire 32 . read_data [31:0] $end
    $var wire 1 ' read $end
    $var wire 1 % write $end
    $var wire 1 & valid $end
    $var wire 1 , ready $end
   $upscope $end
   $scope module bus_slave $end
    $var wire 16 ( addr [15:0] $end
    $var wire 32 ) write_data [31:0] $end
    $var wire 32 . read_data [31:0] $end
    $var wire 1 ' read $end
    $var wire 1 % write $end
    $var wire 1 & valid $end
    $var wire 1 , ready $end
   $upscope $end
   $scope module u_arbiter $end
    $scope module m $end
     $var wire 16 ( addr [15:0] $end
     $var wire 32 ) write_data [31:0] $end
     $var wire 32 . read_data [31:0] $end
     $var wire 1 ' read $end
     $var wire 1 % write $end
     $var wire 1 & valid $end
     $var wire 1 , ready $end
    $upscope $end
    $scope module s $end
     $var wire 16 ( addr [15:0] $end
     $var wire 32 ) write_data [31:0] $end
     $var wire 32 . read_data [31:0] $end
     $var wire 1 ' read $end
     $var wire 1 % write $end
     $var wire 1 & valid $end
     $var wire 1 , ready $end
    $upscope $end
   $upscope $end
   $scope module u_master $end
    $var wire 1 0 clk $end
    $var wire 1 1 reset $end
    $scope module busa $end
     $var wire 16 ( addr [15:0] $end
     $var wire 32 ) write_data [31:0] $end
     $var wire 32 . read_data [31:0] $end
     $var wire 1 ' read $end
     $var wire 1 % write $end
     $var wire 1 & valid $end
     $var wire 1 , ready $end
    $upscope $end
    $var wire 2 2 ST_IDLE [1:0] $end
    $var wire 2 3 ST_ADDR_PHASE [1:0] $end
    $var wire 2 4 ST_DATA_PHASE [1:0] $end
    $var wire 2 # state [1:0] $end
    $var wire 2 $ next_state [1:0] $end
    $var wire 1 % write_r $end
    $var wire 1 & valid_r $end
    $var wire 1 ' read_r $end
    $var wire 16 ( addr_r [15:0] $end
    $var wire 32 ) write_data_r [31:0] $end
   $upscope $end
   $scope module u_slave $end
    $var wire 1 0 clk $end
    $var wire 1 1 reset $end
    $scope module busc $end
     $var wire 16 ( addr [15:0] $end
     $var wire 32 ) write_data [31:0] $end
     $var wire 32 . read_data [31:0] $end
     $var wire 1 ' read $end
     $var wire 1 % write $end
     $var wire 1 & valid $end
     $var wire 1 , ready $end
    $upscope $end
    $var wire 2 2 ST_IDLE [1:0] $end
    $var wire 2 3 ST_ADDR_PHASE [1:0] $end
    $var wire 2 4 ST_DATA_PHASE [1:0] $end
    $var wire 2 * state [1:0] $end
    $var wire 2 + next_state [1:0] $end
    $var wire 1 , ready_r $end
    $var wire 1 - ready_next $end
    $var wire 32 . read_data_r [31:0] $end
    $var wire 32 / read_data_next [31:0] $end
   $upscope $end
  $upscope $end
 $upscope $end
$enddefinitions $end


#0
b00 #
b00 $
1%
1&
0'
b0000000000010000 (
b11011110101011011011111011101111 )
b00 *
b01 +
0,
0-
b00000000000000000000000000000000 .
b00000000000000000000000000000000 /
00
11
b00 2
b01 3
b10 4
#10
b01 *
b10 +
1-
10
#20
00
#30
b01 $
b10 *
b00 +
1,
0-
10
#40
00
#50
b01 #
0%
b0000000000000000 (
b00000000000000000000000000000000 )
b00 *
b01 +
0,
10
#60
00
#70
b01 *
b10 +
1-
10
#80
00
#90
b10 $
b10 *
b00 +
1,
0-
10
#100
00
#110
b10 #
b00 *
b01 +
0,
10
#120
00
#130
b01 *
b10 +
1-
10
#140
00
#150
b00 $
b10 *
b00 +
1,
0-
10
#160
00
#170
b00 #
1%
b0000000000010000 (
b11011110101011011011111011101111 )
b00 *
b01 +
0,
10
#180
00
#190
b01 *
b10 +
1-
10
#200
00
#210
b01 $
b10 *
b00 +
1,
0-
10
#220
00
#230
b01 #
0%
b0000000000000000 (
b00000000000000000000000000000000 )
b00 *
b01 +
0,
10
#240
00
#250
b01 *
b10 +
1-
10
#260
00
#270
b10 $
b10 *
b00 +
1,
0-
10
#280
00
#290
b10 #
b00 *
b01 +
0,
10
#300
00
#310
b01 *
b10 +
1-
10
#320
00
#330
b00 $
b10 *
b00 +
1,
0-
10
#340
00
#350
b00 #
1%
b0000000000010000 (
b11011110101011011011111011101111 )
b00 *
b01 +
0,
10
#360
00
#370
b01 *
b10 +
1-
10
#380
00
#390
b01 $
b10 *
b00 +
1,
0-
10
#400
00
#410
b01 #
0%
b0000000000000000 (
b00000000000000000000000000000000 )
b00 *
b01 +
0,
10
#420
00
#430
b01 *
b10 +
1-
10
#440
00
#450
b10 $
b10 *
b00 +
1,
0-
10
#460
00
#470
b10 #
b00 *
b01 +
0,
10
#480
00
#490
b01 *
b10 +
1-
10
#500
00
#510
b00 $
b10 *
b00 +
1,
0-
10
#520
00
#530
b00 #
1%
b0000000000010000 (
b11011110101011011011111011101111 )
b00 *
b01 +
0,
10
#540
00
#550
b01 *
b10 +
1-
10
#560
00
#570
b01 $
b10 *
b00 +
1,
0-
10
#580
00
#590
b01 #
0%
b0000000000000000 (
b00000000000000000000000000000000 )
b00 *
b01 +
0,
10
#600
00
#610
b01 *
b10 +
1-
10
#620
00
#630
b10 $
b10 *
b00 +
1,
0-
10
#640
00
#650
b10 #
b00 *
b01 +
0,
10
#660
00
#670
b01 *
b10 +
1-
10
#680
00
#690
b00 $
b10 *
b00 +
1,
0-
10
#700
00
#710
b00 #
1%
b0000000000010000 (
b11011110101011011011111011101111 )
b00 *
b01 +
0,
10
#720
00
#730
b01 *
b10 +
1-
10
#740
00
#750
b01 $
b10 *
b00 +
1,
0-
10
#760
00
#770
b01 #
0%
b0000000000000000 (
b00000000000000000000000000000000 )
b00 *
b01 +
0,
10
#780
00
#790
b01 *
b10 +
1-
10
#800
00
#810
b10 $
b10 *
b00 +
1,
0-
10
#820
00
#830
b10 #
b00 *
b01 +
0,
10
#840
00
#850
b01 *
b10 +
1-
10
#860
00
#870
b00 $
b10 *
b00 +
1,
0-
10
#880
00
#890
b00 #
1%
b0000000000010000 (
b11011110101011011011111011101111 )
b00 *
b01 +
0,
10
#900
00
#910
b01 *
b10 +
1-
10
#920
00
#930
b01 $
b10 *
b00 +
1,
0-
10
#940
00
#950
b01 #
0%
b0000000000000000 (
b00000000000000000000000000000000 )
b00 *
b01 +
0,
10
#960
00
#970
b01 *
b10 +
1-
10
#980
00
#990
b10 $
b10 *
b00 +
1,
0-
10
#1000
00
#1010
b10 #
b00 *
b01 +
0,
10
#1020
00
#1030
b01 *
b10 +
1-
10
#1040
00
#1050
b00 $
b10 *
b00 +
1,
0-
10
#1060
00
#1070
b00 #
1%
b0000000000010000 (
b11011110101011011011111011101111 )
b00 *
b01 +
0,
10
#1080
00
#1090
b01 *
b10 +
1-
10
#1100
00
#1110
b01 $
b10 *
b00 +
1,
0-
10
#1120
00
#1130
b01 #
0%
b0000000000000000 (
b00000000000000000000000000000000 )
b00 *
b01 +
0,
10
#1140
00
#1150
b01 *
b10 +
1-
10
#1160
00
#1170
b10 $
b10 *
b00 +
1,
0-
10
#1180
00
#1190
b10 #
b00 *
b01 +
0,
10
#1200
00
#1210
b01 *
b10 +
1-
10
#1220
00
#1230
b00 $
b10 *
b00 +
1,
0-
10
#1240
00
#1250
b00 #
1%
b0000000000010000 (
b11011110101011011011111011101111 )
b00 *
b01 +
0,
10
#1260
00
#1270
b01 *
b10 +
1-
10
#1280
00
#1290
b01 $
b10 *
b00 +
1,
0-
10
#1300
00
#1310
b01 #
0%
b0000000000000000 (
b00000000000000000000000000000000 )
b00 *
b01 +
0,
10
#1320
00
#1330
b01 *
b10 +
1-
10
#1340
00
#1350
b10 $
b10 *
b00 +
1,
0-
10
#1360
00
#1370
b10 #
b00 *
b01 +
0,
10
#1380
00
#1390
b01 *
b10 +
1-
10
#1400
00
#1410
b00 $
b10 *
b00 +
1,
0-
10
#1420
00
#1430
b00 #
1%
b0000000000010000 (
b11011110101011011011111011101111 )
b00 *
b01 +
0,
10
#1440
00
#1450
b01 *
b10 +
1-
10
#1460
00
#1470
b01 $
b10 *
b00 +
1,
0-
10
#1480
00
#1490
b01 #
0%
b0000000000000000 (
b00000000000000000000000000000000 )
b00 *
b01 +
0,
10
#1500
00
#1510
b01 *
b10 +
1-
10
#1520
00
#1530
b10 $
b10 *
b00 +
1,
0-
10
#1540
00
#1550
b10 #
b00 *
b01 +
0,
10
#1560
00
#1570
b01 *
b10 +
1-
10
#1580
00
#1590
b00 $
b10 *
b00 +
1,
0-
10
#1600
00
#1610
b00 #
1%
b0000000000010000 (
b11011110101011011011111011101111 )
b00 *
b01 +
0,
10
#1620
00
#1630
b01 *
b10 +
1-
10
#1640
00
#1650
b01 $
b10 *
b00 +
1,
0-
10
#1660
00
#1670
b01 #
0%
b0000000000000000 (
b00000000000000000000000000000000 )
b00 *
b01 +
0,
10
#1680
00
#1690
b01 *
b10 +
1-
10
#1700
00
#1710
b10 $
b10 *
b00 +
1,
0-
10
#1720
00
#1730
b10 #
b00 *
b01 +
0,
10
#1740
00
#1750
b01 *
b10 +
1-
10
#1760
00
#1770
b00 $
b10 *
b00 +
1,
0-
10
#1780
00
#1790
b00 #
1%
b0000000000010000 (
b11011110101011011011111011101111 )
b00 *
b01 +
0,
10
#1800
00
#1810
b01 *
b10 +
1-
10
#1820
00
#1830
b01 $
b10 *
b00 +
1,
0-
10
#1840
00
#1850
b01 #
0%
b0000000000000000 (
b00000000000000000000000000000000 )
b00 *
b01 +
0,
10
#1860
00
#1870
b01 *
b10 +
1-
10
#1880
00
#1890
b10 $
b10 *
b00 +
1,
0-
10
#1900
00
#1910
b10 #
b00 *
b01 +
0,
10
#1920
00
#1930
b01 *
b10 +
1-
10
#1940
00
#1950
b00 $
b10 *
b00 +
1,
0-
10
#1960
00
#1970
b00 #
1%
b0000000000010000 (
b11011110101011011011111011101111 )
b00 *
b01 +
0,
10
#1980
00
#1990
b01 *
b10 +
1-
10
#2000
00
#2010
b01 $
b10 *
b00 +
1,
0-
10
#2020
00
#2030
b01 #
0%
b0000000000000000 (
b00000000000000000000000000000000 )
b00 *
b01 +
0,
10
#2040
00
#2050
b01 *
b10 +
1-
10
#2060
00
#2070
b10 $
b10 *
b00 +
1,
0-
10
#2080
00
#2090
b10 #
b00 *
b01 +
0,
10
#2100
00
#2110
b01 *
b10 +
1-
10
#2120
00
#2130
b00 $
b10 *
b00 +
1,
0-
10
#2140
00
#2150
b00 #
1%
b0000000000010000 (
b11011110101011011011111011101111 )
b00 *
b01 +
0,
10
#2160
00
#2170
b01 *
b10 +
1-
10
#2180
00
#2190
b01 $
b10 *
b00 +
1,
0-
10
#2200
00
#2210
b01 #
0%
b0000000000000000 (
b00000000000000000000000000000000 )
b00 *
b01 +
0,
10
#2220
00
#2230
b01 *
b10 +
1-
10
#2240
00
#2250
b10 $
b10 *
b00 +
1,
0-
10
#2260
00
#2270
b10 #
b00 *
b01 +
0,
10
#2280
00
#2290
b01 *
b10 +
1-
10
#2300
00
#2310
b00 $
b10 *
b00 +
1,
0-
10
#2320
00
#2330
b00 #
1%
b0000000000010000 (
b11011110101011011011111011101111 )
b00 *
b01 +
0,
10
#2340
00
#2350
b01 *
b10 +
1-
10
#2360
00
#2370
b01 $
b10 *
b00 +
1,
0-
10
#2380
00
#2390
b01 #
0%
b0000000000000000 (
b00000000000000000000000000000000 )
b00 *
b01 +
0,
10
#2400
00
#2410
b01 *
b10 +
1-
10
#2420
00
#2430
b10 $
b10 *
b00 +
1,
0-
10
#2440
00
#2450
b10 #
b00 *
b01 +
0,
10
#2460
00
#2470
b01 *
b10 +
1-
10
#2480
00
#2490
b00 $
b10 *
b00 +
1,
0-
10
#2500
00
#2510
b00 #
1%
b0000000000010000 (
b11011110101011011011111011101111 )
b00 *
b01 +
0,
10
#2520
00
#2530
b01 *
b10 +
1-
10
#2540
00
#2550
b01 $
b10 *
b00 +
1,
0-
10
#2560
00
#2570
b01 #
0%
b0000000000000000 (
b00000000000000000000000000000000 )
b00 *
b01 +
0,
10
#2580
00
#2590
b01 *
b10 +
1-
10
#2600
00
#2610
b10 $
b10 *
b00 +
1,
0-
10
#2620
00
#2630
b10 #
b00 *
b01 +
0,
10
#2640
00
#2650
b01 *
b10 +
1-
10
#2660
00
#2670
b00 $
b10 *
b00 +
1,
0-
10
#2680
00
#2690
b00 #
1%
b0000000000010000 (
b11011110101011011011111011101111 )
b00 *
b01 +
0,
10
#2700
00
#2710
b01 *
b10 +
1-
10
#2720
00
#2730
b01 $
b10 *
b00 +
1,
0-
10
#2740
00
#2750
b01 #
0%
b0000000000000000 (
b00000000000000000000000000000000 )
b00 *
b01 +
0,
10
#2760
00
#2770
b01 *
b10 +
1-
10
#2780
00
#2790
b10 $
b10 *
b00 +
1,
0-
10
#2800
00
#2810
b10 #
b00 *
b01 +
0,
10
#2820
00
#2830
b01 *
b10 +
1-
10
#2840
00
#2850
b00 $
b10 *
b00 +
1,
0-
10
#2860
00
#2870
b00 #
1%
b0000000000010000 (
b11011110101011011011111011101111 )
b00 *
b01 +
0,
10
#2880
00
#2890
b01 *
b10 +
1-
10
#2900
00
#2910
b01 $
b10 *
b00 +
1,
0-
10
#2920
00
#2930
b01 #
0%
b0000000000000000 (
b00000000000000000000000000000000 )
b00 *
b01 +
0,
10
#2940
00
#2950
b01 *
b10 +
1-
10
#2960
00
#2970
b10 $
b10 *
b00 +
1,
0-
10
#2980
00
#2990
b10 #
b00 *
b01 +
0,
10
#3000
00
#3010
b01 *
b10 +
1-
10
#3020
00
#3030
b00 $
b10 *
b00 +
1,
0-
10
#3040
00
#3050
b00 #
1%
b0000000000010000 (
b11011110101011011011111011101111 )
b00 *
b01 +
0,
10
#3060
00
#3070
b01 *
b10 +
1-
10
#3080
00
#3090
b01 $
b10 *
b00 +
1,
0-
10
#3100
00
#3110
b01 #
0%
b0000000000000000 (
b00000000000000000000000000000000 )
b00 *
b01 +
0,
10
#3120
00
#3130
b01 *
b10 +
1-
10
#3140
00
#3150
b10 $
b10 *
b00 +
1,
0-
10
#3160
00
#3170
b10 #
b00 *
b01 +
0,
10
#3180
00
#3190
b01 *
b10 +
1-
10
#3200
00
#3210
b00 $
b10 *
b00 +
1,
0-
10
#3220
00
#3230
b00 #
1%
b0000000000010000 (
b11011110101011011011111011101111 )
b00 *
b01 +
0,
10
#3240
00
#3250
b01 *
b10 +
1-
10
#3260
00
#3270
b01 $
b10 *
b00 +
1,
0-
10
#3280
00
#3290
b01 #
0%
b0000000000000000 (
b00000000000000000000000000000000 )
b00 *
b01 +
0,
10
#3300
00
#3310
b01 *
b10 +
1-
10
#3320
00
#3330
b10 $
b10 *
b00 +
1,
0-
10
#3340
00
#3350
b10 #
b00 *
b01 +
0,
10
#3360
00
#3370
b01 *
b10 +
1-
10
#3380
00
#3390
b00 $
b10 *
b00 +
1,
0-
10
#3400
00
#3410
b00 #
1%
b0000000000010000 (
b11011110101011011011111011101111 )
b00 *
b01 +
0,
10
#3420
00
#3430
b01 *
b10 +
1-
10
#3440
00
#3450
b01 $
b10 *
b00 +
1,
0-
10
#3460
00
#3470
b01 #
0%
b0000000000000000 (
b00000000000000000000000000000000 )
b00 *
b01 +
0,
10
#3480
00
#3490
b01 *
b10 +
1-
10
#3500
00
#3510
b10 $
b10 *
b00 +
1,
0-
10
#3520
00
#3530
b10 #
b00 *
b01 +
0,
10
#3540
00
#3550
b01 *
b10 +
1-
10
#3560
00
#3570
b00 $
b10 *
b00 +
1,
0-
10
#3580
00
#3590
b00 #
1%
b0000000000010000 (
b11011110101011011011111011101111 )
b00 *
b01 +
0,
10
#3600
00
#3610
b01 *
b10 +
1-
10
#3620
00
#3630
b01 $
b10 *
b00 +
1,
0-
10
#3640
00
#3650
b01 #
0%
b0000000000000000 (
b00000000000000000000000000000000 )
b00 *
b01 +
0,
10
#3660
00
#3670
b01 *
b10 +
1-
10
#3680
00
#3690
b10 $
b10 *
b00 +
1,
0-
10
#3700
00
#3710
b10 #
b00 *
b01 +
0,
10
#3720
00
#3730
b01 *
b10 +
1-
10
#3740
00
#3750
b00 $
b10 *
b00 +
1,
0-
10
#3760
00
#3770
b00 #
1%
b0000000000010000 (
b11011110101011011011111011101111 )
b00 *
b01 +
0,
10
#3780
00
#3790
b01 *
b10 +
1-
10
#3800
00
#3810
b01 $
b10 *
b00 +
1,
0-
10
#3820
00
#3830
b01 #
0%
b0000000000000000 (
b00000000000000000000000000000000 )
b00 *
b01 +
0,
10
#3840
00
#3850
b01 *
b10 +
1-
10
#3860
00
#3870
b10 $
b10 *
b00 +
1,
0-
10
#3880
00
#3890
b10 #
b00 *
b01 +
0,
10
#3900
00
#3910
b01 *
b10 +
1-
10
#3920
00
#3930
b00 $
b10 *
b00 +
1,
0-
10
#3940
00
#3950
b00 #
1%
b0000000000010000 (
b11011110101011011011111011101111 )
b00 *
b01 +
0,
10
#3960
00
#3970
b01 *
b10 +
1-
10
#3980
00
#3990
b01 $
b10 *
b00 +
1,
0-
10
#4000
00
#4010
b01 #
0%
b0000000000000000 (
b00000000000000000000000000000000 )
b00 *
b01 +
0,
10
#4020
00
#4030
b01 *
b10 +
1-
10
#4040
00
#4050
b10 $
b10 *
b00 +
1,
0-
10
#4060
00
#4070
b10 #
b00 *
b01 +
0,
10
#4080
00
#4090
b01 *
b10 +
1-
10
#4100
00
#4110
b00 $
b10 *
b00 +
1,
0-
10
#4120
00
#4130
b00 #
1%
b0000000000010000 (
b11011110101011011011111011101111 )
b00 *
b01 +
0,
10
#4140
00
#4150
b01 *
b10 +
1-
10
#4160
00
#4170
b01 $
b10 *
b00 +
1,
0-
10
#4180
00
#4190
b01 #
0%
b0000000000000000 (
b00000000000000000000000000000000 )
b00 *
b01 +
0,
10
#4200
00
#4210
b01 *
b10 +
1-
10
#4220
00
#4230
b10 $
b10 *
b00 +
1,
0-
10
#4240
00
#4250
b10 #
b00 *
b01 +
0,
10
#4260
00
#4270
b01 *
b10 +
1-
10
#4280
00
#4290
b00 $
b10 *
b00 +
1,
0-
10
#4300
00
#4310
b00 #
1%
b0000000000010000 (
b11011110101011011011111011101111 )
b00 *
b01 +
0,
10
#4320
00
#4330
b01 *
b10 +
1-
10
#4340
00
#4350
b01 $
b10 *
b00 +
1,
0-
10
#4360
00
#4370
b01 #
0%
b0000000000000000 (
b00000000000000000000000000000000 )
b00 *
b01 +
0,
10
#4380
00
#4390
b01 *
b10 +
1-
10
#4400
00
#4410
b10 $
b10 *
b00 +
1,
0-
10
#4420
00
#4430
b10 #
b00 *
b01 +
0,
10
#4440
00
#4450
b01 *
b10 +
1-
10
#4460
00
#4470
b00 $
b10 *
b00 +
1,
0-
10
#4480
00
#4490
b00 #
1%
b0000000000010000 (
b11011110101011011011111011101111 )
b00 *
b01 +
0,
10
#4500
00
#4510
b01 *
b10 +
1-
10
#4520
00
#4530
b01 $
b10 *
b00 +
1,
0-
10
#4540
00
#4550
b01 #
0%
b0000000000000000 (
b00000000000000000000000000000000 )
b00 *
b01 +
0,
10
#4560
00
#4570
b01 *
b10 +
1-
10
#4580
00
#4590
b10 $
b10 *
b00 +
1,
0-
10
#4600
00
#4610
b10 #
b00 *
b01 +
0,
10
#4620
00
#4630
b01 *
b10 +
1-
10
#4640
00
#4650
b00 $
b10 *
b00 +
1,
0-
10
#4660
00
#4670
b00 #
1%
b0000000000010000 (
b11011110101011011011111011101111 )
b00 *
b01 +
0,
10
#4680
00
#4690
b01 *
b10 +
1-
10
#4700
00
#4710
b01 $
b10 *
b00 +
1,
0-
10
#4720
00
#4730
b01 #
0%
b0000000000000000 (
b00000000000000000000000000000000 )
b00 *
b01 +
0,
10
#4740
00
#4750
b01 *
b10 +
1-
10
#4760
00
#4770
b10 $
b10 *
b00 +
1,
0-
10
#4780
00
#4790
b10 #
b00 *
b01 +
0,
10
#4800
00
#4810
b01 *
b10 +
1-
10
#4820
00
#4830
b00 $
b10 *
b00 +
1,
0-
10
#4840
00
#4850
b00 #
1%
b0000000000010000 (
b11011110101011011011111011101111 )
b00 *
b01 +
0,
10
#4860
00
#4870
b01 *
b10 +
1-
10
#4880
00
#4890
b01 $
b10 *
b00 +
1,
0-
10
#4900
00
#4910
b01 #
0%
b0000000000000000 (
b00000000000000000000000000000000 )
b00 *
b01 +
0,
10
#4920
00
#4930
b01 *
b10 +
1-
10
#4940
00
#4950
b10 $
b10 *
b00 +
1,
0-
10
#4960
00
#4970
b10 #
b00 *
b01 +
0,
10
#4980
00
#4990
b01 *
b10 +
1-
10
#5000
00
#5010
b00 $
b10 *
b00 +
1,
0-
10
#5020
00
#5030
b00 #
1%
b0000000000010000 (
b11011110101011011011111011101111 )
b00 *
b01 +
0,
10
#5040
00
#5050
b01 *
b10 +
1-
10
#5060
00
#5070
b01 $
b10 *
b00 +
1,
0-
10
#5080
00
#5090
b01 #
0%
b0000000000000000 (
b00000000000000000000000000000000 )
b00 *
b01 +
0,
10
#5100
00
#5110
b01 *
b10 +
1-
10
#5120
00
#5130
b10 $
b10 *
b00 +
1,
0-
10
#5140
00
#5150
b10 #
b00 *
b01 +
0,
10
#5160
00
#5170
b01 *
b10 +
1-
10
#5180
00
#5190
b00 $
b10 *
b00 +
1,
0-
10
#5200
00
#5210
b00 #
1%
b0000000000010000 (
b11011110101011011011111011101111 )
b00 *
b01 +
0,
10
#5220
00
#5230
b01 *
b10 +
1-
10
#5240
00
#5250
b01 $
b10 *
b00 +
1,
0-
10
#5260
00
#5270
b01 #
0%
b0000000000000000 (
b00000000000000000000000000000000 )
b00 *
b01 +
0,
10
#5280
00
#5290
b01 *
b10 +
1-
10
#5300
00
#5310
b10 $
b10 *
b00 +
1,
0-
10
#5320
00
#5330
b10 #
b00 *
b01 +
0,
10
#5340
00
#5350
b01 *
b10 +
1-
10
#5360
00
#5370
b00 $
b10 *
b00 +
1,
0-
10
#5380
00
#5390
b00 #
1%
b0000000000010000 (
b11011110101011011011111011101111 )
b00 *
b01 +
0,
10
#5400
00
#5410
b01 *
b10 +
1-
10
#5420
00
#5430
b01 $
b10 *
b00 +
1,
0-
10
#5440
00
#5450
b01 #
0%
b0000000000000000 (
b00000000000000000000000000000000 )
b00 *
b01 +
0,
10
#5460
00
#5470
b01 *
b10 +
1-
10
#5480
00
#5490
b10 $
b10 *
b00 +
1,
0-
10
#5500
00
#5510
b10 #
b00 *
b01 +
0,
10
#5520
00
#5530
b01 *
b10 +
1-
10
#5540
00
#5550
b00 $
b10 *
b00 +
1,
0-
10
#5560
00
#5570
b00 #
1%
b0000000000010000 (
b11011110101011011011111011101111 )
b00 *
b01 +
0,
10
#5580
00
#5590
b01 *
b10 +
1-
10
#5600
00
#5610
b01 $
b10 *
b00 +
1,
0-
10
#5620
00
#5630
b01 #
0%
b0000000000000000 (
b00000000000000000000000000000000 )
b00 *
b01 +
0,
10
#5640
00
#5650
b01 *
b10 +
1-
10
#5660
00
#5670
b10 $
b10 *
b00 +
1,
0-
10
#5680
00
#5690
b10 #
b00 *
b01 +
0,
10
#5700
00
#5710
b01 *
b10 +
1-
10
#5720
00
#5730
b00 $
b10 *
b00 +
1,
0-
10
#5740
00
#5750
b00 #
1%
b0000000000010000 (
b11011110101011011011111011101111 )
b00 *
b01 +
0,
10
#5760
00
#5770
b01 *
b10 +
1-
10
#5780
00
#5790
b01 $
b10 *
b00 +
1,
0-
10
#5800
00
#5810
b01 #
0%
b0000000000000000 (
b00000000000000000000000000000000 )
b00 *
b01 +
0,
10
#5820
00
#5830
b01 *
b10 +
1-
10
#5840
00
#5850
b10 $
b10 *
b00 +
1,
0-
10
#5860
00
#5870
b10 #
b00 *
b01 +
0,
10
#5880
00
#5890
b01 *
b10 +
1-
10
#5900
00
#5910
b00 $
b10 *
b00 +
1,
0-
10
#5920
00
#5930
b00 #
1%
b0000000000010000 (
b11011110101011011011111011101111 )
b00 *
b01 +
0,
10
#5940
00
#5950
b01 *
b10 +
1-
10
#5960
00
#5970
b01 $
b10 *
b00 +
1,
0-
10
#5980
00
#5990
b01 #
0%
b0000000000000000 (
b00000000000000000000000000000000 )
b00 *
b01 +
0,
10
#6000
00
#6010
b01 *
b10 +
1-
10
#6020
00
#6030
b10 $
b10 *
b00 +
1,
0-
10
#6040
00
#6050
b10 #
b00 *
b01 +
0,
10
#6060
00
#6070
b01 *
b10 +
1-
10
#6080
00
#6090
b00 $
b10 *
b00 +
1,
0-
10
#6100
00
#6110
b00 #
1%
b0000000000010000 (
b11011110101011011011111011101111 )
b00 *
b01 +
0,
10
#6120
00
#6130
b01 *
b10 +
1-
10
#6140
00
#6150
b01 $
b10 *
b00 +
1,
0-
10
#6160
00
#6170
b01 #
0%
b0000000000000000 (
b00000000000000000000000000000000 )
b00 *
b01 +
0,
10
#6180
00
#6190
b01 *
b10 +
1-
10
#6200
00
#6210
b10 $
b10 *
b00 +
1,
0-
10
#6220
00
#6230
b10 #
b00 *
b01 +
0,
10
#6240
00
#6250
b01 *
b10 +
1-
10
#6260
00
#6270
b00 $
b10 *
b00 +
1,
0-
10
#6280
00
#6290
b00 #
1%
b0000000000010000 (
b11011110101011011011111011101111 )
b00 *
b01 +
0,
10
#6300
00
#6310
b01 *
b10 +
1-
10
#6320
00
#6330
b01 $
b10 *
b00 +
1,
0-
10
#6340
00
#6350
b01 #
0%
b0000000000000000 (
b00000000000000000000000000000000 )
b00 *
b01 +
0,
10
#6360
00
#6370
b01 *
b10 +
1-
10
#6380
00
#6390
b10 $
b10 *
b00 +
1,
0-
10
#6400
00
#6410
b10 #
b00 *
b01 +
0,
10
#6420
00
#6430
b01 *
b10 +
1-
10
#6440
00
#6450
b00 $
b10 *
b00 +
1,
0-
10
#6460
00
#6470
b00 #
1%
b0000000000010000 (
b11011110101011011011111011101111 )
b00 *
b01 +
0,
10
#6480
00
#6490
b01 *
b10 +
1-
10
#6500
00
#6510
b01 $
b10 *
b00 +
1,
0-
10
#6520
00
#6530
b01 #
0%
b0000000000000000 (
b00000000000000000000000000000000 )
b00 *
b01 +
0,
10
#6540
00
#6550
b01 *
b10 +
1-
10
#6560
00
#6570
b10 $
b10 *
b00 +
1,
0-
10
#6580
00
#6590
b10 #
b00 *
b01 +
0,
10
#6600
00
#6610
b01 *
b10 +
1-
10
#6620
00
#6630
b00 $
b10 *
b00 +
1,
0-
10
#6640
00
#6650
b00 #
1%
b0000000000010000 (
b11011110101011011011111011101111 )
b00 *
b01 +
0,
10
#6660
00
#6670
b01 *
b10 +
1-
10
#6680
00
#6690
b01 $
b10 *
b00 +
1,
0-
10
#6700
00
#6710
b01 #
0%
b0000000000000000 (
b00000000000000000000000000000000 )
b00 *
b01 +
0,
10
#6720
00
#6730
b01 *
b10 +
1-
10
#6740
00
#6750
b10 $
b10 *
b00 +
1,
0-
10
#6760
00
#6770
b10 #
b00 *
b01 +
0,
10
#6780
00
#6790
b01 *
b10 +
1-
10
#6800
00
#6810
b00 $
b10 *
b00 +
1,
0-
10
#6820
00
#6830
b00 #
1%
b0000000000010000 (
b11011110101011011011111011101111 )
b00 *
b01 +
0,
10
#6840
00
#6850
b01 *
b10 +
1-
10
#6860
00
#6870
b01 $
b10 *
b00 +
1,
0-
10
#6880
00
#6890
b01 #
0%
b0000000000000000 (
b00000000000000000000000000000000 )
b00 *
b01 +
0,
10
#6900
00
#6910
b01 *
b10 +
1-
10
#6920
00
#6930
b10 $
b10 *
b00 +
1,
0-
10
#6940
00
#6950
b10 #
b00 *
b01 +
0,
10
#6960
00
#6970
b01 *
b10 +
1-
10
#6980
00
#6990
b00 $
b10 *
b00 +
1,
0-
10
#7000
00
#7010
b00 #
1%
b0000000000010000 (
b11011110101011011011111011101111 )
b00 *
b01 +
0,
10
#7020
00
#7030
b01 *
b10 +
1-
10
#7040
00
#7050
b01 $
b10 *
b00 +
1,
0-
10
#7060
00
#7070
b01 #
0%
b0000000000000000 (
b00000000000000000000000000000000 )
b00 *
b01 +
0,
10
#7080
00
#7090
b01 *
b10 +
1-
10
#7100
00
#7110
b10 $
b10 *
b00 +
1,
0-
10
#7120
00
#7130
b10 #
b00 *
b01 +
0,
10
#7140
00
#7150
b01 *
b10 +
1-
10
#7160
00
#7170
b00 $
b10 *
b00 +
1,
0-
10
#7180
00
#7190
b00 #
1%
b0000000000010000 (
b11011110101011011011111011101111 )
b00 *
b01 +
0,
10
#7200
00
#7210
b01 *
b10 +
1-
10
#7220
00
#7230
b01 $
b10 *
b00 +
1,
0-
10
#7240
00
#7250
b01 #
0%
b0000000000000000 (
b00000000000000000000000000000000 )
b00 *
b01 +
0,
10
#7260
00
#7270
b01 *
b10 +
1-
10
#7280
00
#7290
b10 $
b10 *
b00 +
1,
0-
10
#7300
00
#7310
b10 #
b00 *
b01 +
0,
10
#7320
00
#7330
b01 *
b10 +
1-
10
#7340
00
#7350
b00 $
b10 *
b00 +
1,
0-
10
#7360
00
#7370
b00 #
1%
b0000000000010000 (
b11011110101011011011111011101111 )
b00 *
b01 +
0,
10
#7380
00
#7390
b01 *
b10 +
1-
10
#7400
00
#7410
b01 $
b10 *
b00 +
1,
0-
10
#7420
00
#7430
b01 #
0%
b0000000000000000 (
b00000000000000000000000000000000 )
b00 *
b01 +
0,
10
#7440
00
#7450
b01 *
b10 +
1-
10
#7460
00
#7470
b10 $
b10 *
b00 +
1,
0-
10
#7480
00
#7490
b10 #
b00 *
b01 +
0,
10
#7500
00
#7510
b01 *
b10 +
1-
10
#7520
00
#7530
b00 $
b10 *
b00 +
1,
0-
10
#7540
00
#7550
b00 #
1%
b0000000000010000 (
b11011110101011011011111011101111 )
b00 *
b01 +
0,
10
#7560
00
#7570
b01 *
b10 +
1-
10
#7580
00
#7590
b01 $
b10 *
b00 +
1,
0-
10
#7600
00
